{
    "author_name": "nic",
    "description": "A short description of the project.",
    "entrypoint": "bash kickoff.sh |& au2 logger write $AU_LOGGER_STREAM --stdin", 
    "git_repo": "git@bitbucket.org:tyler_danner/ltv_pusher.git",
    "process_name": "LTV_Pusher"
}